module modernc.org/wm

require (
	github.com/gdamore/encoding v0.0.0-20151215212835-b23993cbb635 // indirect
	github.com/gdamore/tcell v1.1.0
	github.com/lucasb-eyer/go-colorful v0.0.0-20181028223441-12d3b2882a08 // indirect
	github.com/mattn/go-runewidth v0.0.3
	github.com/remyoudompheng/bigfft v0.0.0-20170806203942-52369c62f446 // indirect
	golang.org/x/text v0.3.0 // indirect
	modernc.org/interval v1.0.0
	modernc.org/mathutil v1.0.0
)
